<svg width="60" height="60" viewBox="0 0 60 60" fill="none" xmlns="http://www.w3.org/2000/svg">
<circle cx="30" cy="30" r="30" fill="#F7931E"/>
<path d="M16.6917 46.5349H34.4609C34.384 47.1502 33.9225 47.9195 34.5379 48.6887C34.9225 49.1502 35.6148 49.381 36.2302 49.0733L38.5379 47.9964L40.9225 49.0733C41.5379 49.3041 42.1532 49.1502 42.6148 48.6887C42.8456 48.381 42.9994 47.9195 42.9225 47.5349L41.9225 42.7656C44.6917 41.5349 46.6148 38.6887 46.6148 35.4579C46.6148 31.5349 43.7686 28.3041 40.0763 27.6118V14.0733C40.0763 12.2272 38.6148 10.7656 36.7686 10.7656H16.7686C14.9225 10.7656 13.4609 12.2272 13.4609 14.0733V43.3041C13.4609 45.0733 14.9225 46.5349 16.6917 46.5349ZM40.384 43.3041L41.3071 47.6118L38.8456 46.5349C38.6148 46.4579 38.384 46.4579 38.2302 46.5349L35.8456 47.6118L36.8456 43.3041C37.384 43.381 38.0763 43.5349 38.7686 43.4579C39.2302 43.4579 39.8456 43.4579 40.384 43.3041ZM44.9994 35.5349C44.9994 39.0733 42.1532 41.9964 38.6148 41.9964C35.0763 41.9964 32.1532 39.1502 32.1532 35.5349C32.1532 31.9964 35.0763 29.0733 38.6148 29.0733C42.1532 29.0733 44.9994 31.9964 44.9994 35.5349ZM14.9994 14.0733C14.9994 13.0733 15.7686 12.3041 16.6917 12.3041H36.6917C37.6917 12.3041 38.4609 13.0733 38.4609 14.0733V27.5349C29.9994 27.6118 27.5379 39.381 35.384 42.8425L34.8456 45.0733H16.6917C15.6917 45.0733 14.9225 44.3041 14.9225 43.3041V14.0733H14.9994Z" fill="white"/>
<path d="M33.9979 35.5331C33.9979 38.0715 36.0748 40.1484 38.6133 40.1484C41.1517 40.1484 43.2287 38.0715 43.2287 35.5331C43.2287 32.9946 41.1517 30.9177 38.6133 30.9177C36.0748 30.9177 33.9979 32.9946 33.9979 35.5331ZM41.6133 35.5331C41.6133 37.2254 40.2287 38.61 38.5364 38.61C36.844 38.61 35.4594 37.2254 35.4594 35.5331C35.4594 33.8407 36.844 32.4561 38.5364 32.4561C40.2287 32.4561 41.6133 33.8407 41.6133 35.5331ZM18.3825 17.6869H33.7671C34.2287 17.6869 34.5364 17.3792 34.5364 16.9177C34.5364 16.4561 34.2287 16.1484 33.7671 16.1484H18.3825C17.921 16.1484 17.6133 16.4561 17.6133 16.9177C17.6133 17.3792 17.9979 17.6869 18.3825 17.6869ZM18.3825 22.4561H33.7671C34.2287 22.4561 34.5364 22.1484 34.5364 21.6869C34.5364 21.2254 34.2287 20.9177 33.7671 20.9177H18.3825C17.921 20.9177 17.6133 21.2254 17.6133 21.6869C17.6133 22.1484 17.9979 22.4561 18.3825 22.4561ZM18.3825 27.3023H33.7671C34.2287 27.3023 34.5364 26.9946 34.5364 26.5331C34.5364 26.0715 34.2287 25.7638 33.7671 25.7638H18.3825C17.921 25.7638 17.6133 26.0715 17.6133 26.5331C17.6133 26.9946 17.9979 27.3023 18.3825 27.3023Z" fill="white"/>
</svg>
